id,created,read,text,version,from_id,to_id
1,2017-04-18 16:30:00.000000,FALSE,User A to User B Attempt 1,0,4,5
2,2017-04-18 16:32:00.000000,FALSE,User A to User B Attempt 2,0,4,5
3,2017-04-18 16:34:00.000000,FALSE,User A to User B Attempt 3,0,4,5
4,2017-04-18 16:36:00.000000,FALSE,User A to User C Attempt 1,0,4,6
5,2017-04-18 16:38:00.000000,FALSE,User A to User C Attempt 2,0,4,6
6,2017-04-18 16:40:00.000000,FALSE,User A to User C Attempt 3,0,4,6
7,2017-04-18 16:31:00.000000,FALSE,User B to User A Attempt 1,0,5,4
8,2017-04-18 16:33:00.000000,FALSE,User B to User A Attempt 2,0,5,4
9,2017-04-18 16:35:00.000000,FALSE,User B to User A Attempt 3,0,5,4
10,2017-04-18 16:42:00.000000,FALSE,User B to User C Attempt 1,0,5,6
11,2017-04-18 16:44:00.000000,FALSE,User B to User C Attempt 2,0,5,6
12,2017-04-18 16:46:00.000000,FALSE,User B to User C Attempt 3,0,5,6
13,2017-04-18 16:37:00.000000,FALSE,User C to User A Attempt 1,0,6,4
14,2017-04-18 16:39:00.000000,FALSE,User C to User A Attempt 2,0,6,4
15,2017-04-18 16:41:00.000000,FALSE,User C to User A Attempt 3,0,6,4
16,2017-04-18 16:43:00.000000,FALSE,User C to User B Attempt 1,0,6,5
17,2017-04-18 16:45:00.000000,FALSE,User C to User B Attempt 2,0,6,5
18,2017-04-18 16:47:00.000000,FALSE,User C to User B Attempt 3,0,6,5
